{
	"migration": {
		"-urlid": "http://www.microsoft.com/migration/1.0/migxmlext/CustomFile",
		"component": {
			"-type": "Documents",
			"-context": "User",
			"displayName": "My Video",
			"role": {
				"-role": "Data",
				"detects": {
					"detect": {
						"condition": "MigXmlHelper.DoesObjectExist(\"File\",\"%CSIDL_MYVIDEO%\")"
					}
				},
				"rules": {
					"include": {
						"-filter": "MigXmlHelper.IgnoreIrrelevantLinks()",
						"objectSet": {
							"pattern": {
								"-type": "File",
								"#text": "%CSIDL_MYVIDEO%\\* [*]"
							}
						}
					}
				}
			}
		}
	}
}